tb_sys_picorv32.vcd
$date
	Tue Aug 27 14:58:04 2024
$end
$version
	Icarus Verilog
$end
$timescale
	1ps
$end
$scope module tb_sys_picorv32 $end
$var wire 8 ! LEDR [7:0] $end
$var reg 8 " SW [7:0] $end
$var reg 1 # clk $end
$var reg 1 $ resetn $end
$scope module dutsys $end
$var wire 8 % SW [7:0] $end
$var wire 1 # sys_clk $end
$var wire 1 & sys_read_enable $end
$var wire 1 $ sys_resetn $end
$var wire 1 ' sys_write_enable $end
$var wire 1 ( sys_SWITCH_read $end
$var wire 1 ) sys_RAM_write $end
$var wire 1 * sys_RAM_read $end
$var wire 1 + sys_LED_write $end
$var wire 1 , sys_LED_read $end
$var wire 32 - ram_read_data [31:0] $end
$var wire 1 . global_rw $end
$var wire 4 / cpu_write_strobe [3:0] $end
$var wire 32 0 cpu_write_data [31:0] $end
$var wire 1 1 cpu_trap $end
$var wire 1 2 cpu_rw_cycle $end
$var wire 32 3 cpu_read_data [31:0] $end
$var wire 1 4 cpu_instr_fetch $end
$var wire 32 5 cpu_address [31:0] $end
$var reg 8 6 LEDR [7:0] $end
$var reg 32 7 io_read_data [31:0] $end
$var reg 5 8 sys_rw_bus [4:0] $end
$var reg 1 9 sys_rw_is_done $end
$scope module ram1port_inst $end
$var wire 8 : address [7:0] $end
$var wire 1 # clock $end
$var wire 1 * rden $end
$var wire 1 ) wren $end
$var wire 4 ; wstrb [3:0] $end
$var wire 32 < data [31:0] $end
$var wire 4 = byteena [3:0] $end
$var reg 32 > q [31:0] $end
$upscope $end
$scope module uut $end
$var wire 1 # clk $end
$var wire 32 ? dbg_mem_addr [31:0] $end
$var wire 1 @ dbg_mem_instr $end
$var wire 32 A dbg_mem_rdata [31:0] $end
$var wire 1 B dbg_mem_ready $end
$var wire 1 C dbg_mem_valid $end
$var wire 32 D dbg_mem_wdata [31:0] $end
$var wire 4 E dbg_mem_wstrb [3:0] $end
$var wire 1 F instr_trap $end
$var wire 32 G irq [31:0] $end
$var wire 1 H launch_next_insn $end
$var wire 1 I mem_done $end
$var wire 1 J mem_la_firstword $end
$var wire 1 K mem_la_firstword_xfer $end
$var wire 1 L mem_la_read $end
$var wire 1 M mem_la_use_prefetched_high_word $end
$var wire 1 N mem_la_write $end
$var wire 32 O mem_rdata [31:0] $end
$var wire 32 P mem_rdata_latched [31:0] $end
$var wire 1 9 mem_ready $end
$var wire 1 Q mem_xfer $end
$var wire 32 R pcpi_div_rd [31:0] $end
$var wire 1 S pcpi_div_ready $end
$var wire 1 T pcpi_div_wait $end
$var wire 1 U pcpi_div_wr $end
$var wire 32 V pcpi_mul_rd [31:0] $end
$var wire 1 W pcpi_mul_ready $end
$var wire 1 X pcpi_mul_wait $end
$var wire 1 Y pcpi_mul_wr $end
$var wire 32 Z pcpi_rd [31:0] $end
$var wire 1 [ pcpi_ready $end
$var wire 32 \ pcpi_rs1 [31:0] $end
$var wire 32 ] pcpi_rs2 [31:0] $end
$var wire 1 ^ pcpi_wait $end
$var wire 1 _ pcpi_wr $end
$var wire 1 $ resetn $end
$var wire 32 ` next_pc [31:0] $end
$var wire 32 a mem_rdata_latched_noshuffle [31:0] $end
$var wire 32 b mem_la_addr [31:0] $end
$var wire 1 c mem_busy $end
$var wire 1 d is_rdcycle_rdcycleh_rdinstr_rdinstrh $end
$var parameter 1 e BARREL_SHIFTER $end
$var parameter 1 f CATCH_ILLINSN $end
$var parameter 1 g CATCH_MISALIGN $end
$var parameter 1 h COMPRESSED_ISA $end
$var parameter 1 i ENABLE_COUNTERS $end
$var parameter 1 j ENABLE_COUNTERS64 $end
$var parameter 1 k ENABLE_DIV $end
$var parameter 1 l ENABLE_FAST_MUL $end
$var parameter 1 m ENABLE_IRQ $end
$var parameter 1 n ENABLE_IRQ_QREGS $end
$var parameter 1 o ENABLE_IRQ_TIMER $end
$var parameter 1 p ENABLE_MUL $end
$var parameter 1 q ENABLE_PCPI $end
$var parameter 1 r ENABLE_REGS_16_31 $end
$var parameter 1 s ENABLE_REGS_DUALPORT $end
$var parameter 1 t ENABLE_TRACE $end
$var parameter 32 u LATCHED_IRQ $end
$var parameter 1 v LATCHED_MEM_RDATA $end
$var parameter 32 w MASKED_IRQ $end
$var parameter 32 x PROGADDR_IRQ $end
$var parameter 32 y PROGADDR_RESET $end
$var parameter 1 z REGS_INIT_ZERO $end
$var parameter 32 { STACKADDR $end
$var parameter 36 | TRACE_ADDR $end
$var parameter 36 } TRACE_BRANCH $end
$var parameter 36 ~ TRACE_IRQ $end
$var parameter 1 !" TWO_CYCLE_ALU $end
$var parameter 1 "" TWO_CYCLE_COMPARE $end
$var parameter 1 #" TWO_STAGE_SHIFT $end
$var parameter 1 $" WITH_PCPI $end
$var parameter 8 %" cpu_state_exec $end
$var parameter 8 &" cpu_state_fetch $end
$var parameter 8 '" cpu_state_ld_rs1 $end
$var parameter 8 (" cpu_state_ld_rs2 $end
$var parameter 8 )" cpu_state_ldmem $end
$var parameter 8 *" cpu_state_shift $end
$var parameter 8 +" cpu_state_stmem $end
$var parameter 8 ," cpu_state_trap $end
$var parameter 32 -" irq_buserror $end
$var parameter 32 ." irq_ebreak $end
$var parameter 32 /" irq_timer $end
$var parameter 32 0" irqregs_offset $end
$var parameter 32 1" regfile_size $end
$var parameter 32 2" regindex_bits $end
$var reg 32 3" alu_add_sub [31:0] $end
$var reg 1 4" alu_eq $end
$var reg 1 5" alu_lts $end
$var reg 1 6" alu_ltu $end
$var reg 32 7" alu_out [31:0] $end
$var reg 1 8" alu_out_0 $end
$var reg 1 9" alu_out_0_q $end
$var reg 32 :" alu_out_q [31:0] $end
$var reg 32 ;" alu_shl [31:0] $end
$var reg 32 <" alu_shr [31:0] $end
$var reg 1 =" alu_wait $end
$var reg 1 >" alu_wait_2 $end
$var reg 64 ?" cached_ascii_instr [63:0] $end
$var reg 32 @" cached_insn_imm [31:0] $end
$var reg 32 A" cached_insn_opcode [31:0] $end
$var reg 5 B" cached_insn_rd [4:0] $end
$var reg 5 C" cached_insn_rs1 [4:0] $end
$var reg 5 D" cached_insn_rs2 [4:0] $end
$var reg 1 E" clear_prefetched_high_word $end
$var reg 1 F" clear_prefetched_high_word_q $end
$var reg 1 G" compressed_instr $end
$var reg 64 H" count_cycle [63:0] $end
$var reg 64 I" count_instr [63:0] $end
$var reg 8 J" cpu_state [7:0] $end
$var reg 32 K" cpuregs_rs1 [31:0] $end
$var reg 32 L" cpuregs_rs2 [31:0] $end
$var reg 32 M" cpuregs_wrdata [31:0] $end
$var reg 1 N" cpuregs_write $end
$var reg 32 O" current_pc [31:0] $end
$var reg 64 P" dbg_ascii_instr [63:0] $end
$var reg 128 Q" dbg_ascii_state [127:0] $end
$var reg 32 R" dbg_insn_addr [31:0] $end
$var reg 32 S" dbg_insn_imm [31:0] $end
$var reg 32 T" dbg_insn_opcode [31:0] $end
$var reg 5 U" dbg_insn_rd [4:0] $end
$var reg 5 V" dbg_insn_rs1 [4:0] $end
$var reg 5 W" dbg_insn_rs2 [4:0] $end
$var reg 1 X" dbg_next $end
$var reg 32 Y" dbg_rs1val [31:0] $end
$var reg 1 Z" dbg_rs1val_valid $end
$var reg 32 [" dbg_rs2val [31:0] $end
$var reg 1 \" dbg_rs2val_valid $end
$var reg 1 ]" dbg_valid_insn $end
$var reg 32 ^" decoded_imm [31:0] $end
$var reg 32 _" decoded_imm_j [31:0] $end
$var reg 5 `" decoded_rd [4:0] $end
$var reg 5 a" decoded_rs [4:0] $end
$var reg 5 b" decoded_rs1 [4:0] $end
$var reg 5 c" decoded_rs2 [4:0] $end
$var reg 1 d" decoder_pseudo_trigger $end
$var reg 1 e" decoder_pseudo_trigger_q $end
$var reg 1 f" decoder_trigger $end
$var reg 1 g" decoder_trigger_q $end
$var reg 1 h" do_waitirq $end
$var reg 32 i" eoi [31:0] $end
$var reg 1 j" instr_add $end
$var reg 1 k" instr_addi $end
$var reg 1 l" instr_and $end
$var reg 1 m" instr_andi $end
$var reg 1 n" instr_auipc $end
$var reg 1 o" instr_beq $end
$var reg 1 p" instr_bge $end
$var reg 1 q" instr_bgeu $end
$var reg 1 r" instr_blt $end
$var reg 1 s" instr_bltu $end
$var reg 1 t" instr_bne $end
$var reg 1 u" instr_ecall_ebreak $end
$var reg 1 v" instr_fence $end
$var reg 1 w" instr_getq $end
$var reg 1 x" instr_jal $end
$var reg 1 y" instr_jalr $end
$var reg 1 z" instr_lb $end
$var reg 1 {" instr_lbu $end
$var reg 1 |" instr_lh $end
$var reg 1 }" instr_lhu $end
$var reg 1 ~" instr_lui $end
$var reg 1 !# instr_lw $end
$var reg 1 "# instr_maskirq $end
$var reg 1 ## instr_or $end
$var reg 1 $# instr_ori $end
$var reg 1 %# instr_rdcycle $end
$var reg 1 &# instr_rdcycleh $end
$var reg 1 '# instr_rdinstr $end
$var reg 1 (# instr_rdinstrh $end
$var reg 1 )# instr_retirq $end
$var reg 1 *# instr_sb $end
$var reg 1 +# instr_setq $end
$var reg 1 ,# instr_sh $end
$var reg 1 -# instr_sll $end
$var reg 1 .# instr_slli $end
$var reg 1 /# instr_slt $end
$var reg 1 0# instr_slti $end
$var reg 1 1# instr_sltiu $end
$var reg 1 2# instr_sltu $end
$var reg 1 3# instr_sra $end
$var reg 1 4# instr_srai $end
$var reg 1 5# instr_srl $end
$var reg 1 6# instr_srli $end
$var reg 1 7# instr_sub $end
$var reg 1 8# instr_sw $end
$var reg 1 9# instr_timer $end
$var reg 1 :# instr_waitirq $end
$var reg 1 ;# instr_xor $end
$var reg 1 <# instr_xori $end
$var reg 1 =# irq_active $end
$var reg 1 ># irq_delay $end
$var reg 32 ?# irq_mask [31:0] $end
$var reg 32 @# irq_pending [31:0] $end
$var reg 2 A# irq_state [1:0] $end
$var reg 1 B# is_alu_reg_imm $end
$var reg 1 C# is_alu_reg_reg $end
$var reg 1 D# is_beq_bne_blt_bge_bltu_bgeu $end
$var reg 1 E# is_compare $end
$var reg 1 F# is_jalr_addi_slti_sltiu_xori_ori_andi $end
$var reg 1 G# is_lb_lh_lw_lbu_lhu $end
$var reg 1 H# is_lbu_lhu_lw $end
$var reg 1 I# is_lui_auipc_jal $end
$var reg 1 J# is_lui_auipc_jal_jalr_addi_add_sub $end
$var reg 1 K# is_sb_sh_sw $end
$var reg 1 L# is_sll_srl_sra $end
$var reg 1 M# is_slli_srli_srai $end
$var reg 1 N# is_slti_blt_slt $end
$var reg 1 O# is_sltiu_bltu_sltu $end
$var reg 1 P# last_mem_valid $end
$var reg 1 Q# latched_branch $end
$var reg 1 R# latched_compr $end
$var reg 1 S# latched_is_lb $end
$var reg 1 T# latched_is_lh $end
$var reg 1 U# latched_is_lu $end
$var reg 5 V# latched_rd [4:0] $end
$var reg 1 W# latched_stalu $end
$var reg 1 X# latched_store $end
$var reg 1 Y# latched_trace $end
$var reg 32 Z# mem_addr [31:0] $end
$var reg 1 [# mem_do_prefetch $end
$var reg 1 \# mem_do_rdata $end
$var reg 1 ]# mem_do_rinst $end
$var reg 1 ^# mem_do_wdata $end
$var reg 1 4 mem_instr $end
$var reg 1 _# mem_la_firstword_reg $end
$var reg 1 `# mem_la_secondword $end
$var reg 32 a# mem_la_wdata [31:0] $end
$var reg 4 b# mem_la_wstrb [3:0] $end
$var reg 32 c# mem_rdata_q [31:0] $end
$var reg 32 d# mem_rdata_word [31:0] $end
$var reg 2 e# mem_state [1:0] $end
$var reg 1 2 mem_valid $end
$var reg 32 f# mem_wdata [31:0] $end
$var reg 2 g# mem_wordsize [1:0] $end
$var reg 4 h# mem_wstrb [3:0] $end
$var reg 64 i# new_ascii_instr [63:0] $end
$var reg 32 j# next_insn_opcode [31:0] $end
$var reg 32 k# next_irq_pending [31:0] $end
$var reg 32 l# pcpi_insn [31:0] $end
$var reg 32 m# pcpi_int_rd [31:0] $end
$var reg 1 n# pcpi_int_ready $end
$var reg 1 o# pcpi_int_wait $end
$var reg 1 p# pcpi_int_wr $end
$var reg 1 q# pcpi_timeout $end
$var reg 1 r# pcpi_valid $end
$var reg 1 s# prefetched_high_word $end
$var reg 64 t# q_ascii_instr [63:0] $end
$var reg 32 u# q_insn_imm [31:0] $end
$var reg 32 v# q_insn_opcode [31:0] $end
$var reg 5 w# q_insn_rd [4:0] $end
$var reg 5 x# q_insn_rs1 [4:0] $end
$var reg 5 y# q_insn_rs2 [4:0] $end
$var reg 32 z# reg_next_pc [31:0] $end
$var reg 32 {# reg_op1 [31:0] $end
$var reg 32 |# reg_op2 [31:0] $end
$var reg 32 }# reg_out [31:0] $end
$var reg 32 ~# reg_pc [31:0] $end
$var reg 5 !$ reg_sh [4:0] $end
$var reg 1 "$ set_mem_do_rdata $end
$var reg 1 #$ set_mem_do_rinst $end
$var reg 1 $$ set_mem_do_wdata $end
$var reg 32 %$ timer [31:0] $end
$var reg 36 &$ trace_data [35:0] $end
$var reg 1 '$ trace_valid $end
$var reg 1 1 trap $end
$scope begin genblk1 $end
$upscope $end
$scope begin genblk2 $end
$upscope $end
$scope begin genblk3 $end
$upscope $end
$scope task empty_statement $end
$upscope $end
$upscope $end
$upscope $end
$upscope $end
$enddefinitions $end
$comment Show the parameter values. $end
$dumpall
b101 2"
b100000 1"
b100000 0"
b0 /"
b1 ."
b10 -"
b10000000 ,"
b10 +"
b100 *"
b1 )"
b10000 ("
b100000 '"
b1000000 &"
b1000 %"
0$"
1#"
0""
0!"
b100000000000000000000000000000000000 ~
b100000000000000000000000000000000 }
b1000000000000000000000000000000000 |
b11111111111111111111111111111111 {
0z
b0 y
b10000 x
b0 w
0v
b11111111111111111111111111111111 u
0t
1s
1r
0q
0p
1o
1n
0m
0l
0k
1j
1i
0h
1g
1f
0e
$end
#0
$dumpvars
0'$
bx &$
b0 %$
0$$
0#$
0"$
bx !$
b0 ~#
bx }#
bx |#
bx {#
b0 z#
bx y#
bx x#
bx w#
bx v#
bx u#
bx t#
0s#
0r#
0q#
0p#
0o#
0n#
bx m#
bx l#
b0 k#
bx j#
b0 i#
bx h#
bx g#
bx f#
b0 e#
bx d#
bx c#
bx b#
bx a#
0`#
0_#
0^#
0]#
0\#
0[#
bx Z#
0Y#
0X#
0W#
bx V#
0U#
0T#
0S#
xR#
0Q#
0P#
xO#
xN#
xM#
xL#
xK#
xJ#
xI#
xH#
xG#
xF#
0E#
0D#
xC#
xB#
b0 A#
b0 @#
b11111111111111111111111111111111 ?#
0>#
0=#
0<#
0;#
x:#
x9#
x8#
07#
x6#
05#
x4#
03#
02#
01#
00#
0/#
x.#
0-#
x,#
x+#
x*#
x)#
x(#
x'#
x&#
x%#
0$#
0##
x"#
x!#
x~"
x}"
x|"
x{"
xz"
xy"
xx"
xw"
0v"
xu"
0t"
0s"
0r"
0q"
0p"
0o"
xn"
0m"
0l"
0k"
0j"
b0 i"
0h"
xg"
0f"
xe"
0d"
bx c"
bx b"
bx a"
bx `"
bx _"
bx ^"
0]"
x\"
bx ["
xZ"
bx Y"
xX"
bx W"
bx V"
bx U"
bx T"
bx S"
bx R"
b110011001100101011101000110001101101000 Q"
bx P"
bx O"
0N"
bx M"
bx L"
bx K"
b1000000 J"
b0 I"
b0 H"
xG"
xF"
0E"
bx D"
bx C"
bx B"
bx A"
bx @"
bx ?"
0>"
0="
bx <"
bx ;"
bx :"
x9"
x8"
bx 7"
x6"
x5"
x4"
bx 3"
xd
0c
bx00 b
bx a
b0 `
z_
z^
bx ]
bx \
z[
bz Z
0Y
0X
0W
bx V
0U
0T
0S
bx R
0Q
bx P
bx O
0N
0M
0L
0K
0J
0I
0H
bz G
xF
bx E
bx D
0C
xB
bx A
x@
bx ?
bx >
bx =
bx <
bx ;
bx :
x9
b10 8
bx 7
bx 6
bx 5
x4
bx 3
02
01
bx 0
bx /
1.
bx -
0,
0+
0*
1)
0(
x'
0&
b0 %
1$
1#
b0 "
bx !
$end
#10000
0#
#20000
1L
b0 b
b1111 b#
bx @#
b0 g#
1c
1]#
0e"
0g"
b1 H"
0F"
0O#
0N#
0X"
bx O"
bx k#
1#
#30000
0#
#40000
1*
0)
1.
b1 8
xQ
b0 ;
1&
b0 :
0L
b1 e#
1@
14
1C
12
b0 E
0'
b0 /
b0 =
b0 h#
b0 ?
b0 5
b0 Z#
b10 H"
0$
bx O"
1#
#50000
0#
#60000
0*
0.
b0 8
bx d#
bx00 b
0Q
bx A
bx 3
bx O
0&
b100010111 -
b100010111 >
b0 @#
0c
0]#
b0 H"
0C
02
b0 e#
b0 k#
1#
#70000
0#
#80000
0B
09
1$
b0 k#
1#
#90000
0#
#100000
1L
b0 b
bx @#
1c
1]#
b1 H"
bx O"
bx k#
1#
#110000
0#
#120000
b100010111 d#
b100010111 A
b100010111 3
b100010111 O
1*
1.
b1 8
0L
1&
b1 e#
1C
12
b10 H"
bx O"
1#
#130000
0#
#140000
1I
b100010111 P
b100010111 a
1Q
1B
19
b11 H"
1P#
bx O"
1#
#150000
0#
#160000
bx d#
bx A
bx 3
bx O
0*
0.
b0 8
0I
bx00 b
1H
0Q
0&
b0 L"
b0 K"
0F
b110000101110101011010010111000001100011 i#
b0 e#
0C
02
0P#
b100010111 j#
b100010111 c#
0G"
b0 c"
b0 b"
b10 `"
b0 _"
0C#
0B#
0K#
0G#
0:#
0)#
0y"
0x"
1n"
0~"
0c
0]#
1f"
b100 H"
0B
09
bx O"
1#
#170000
0#
#180000
1L
b100 b
0H
b11011000110010001011111011100100111001100110001 Q"
b100 `
b110000101110101011010010111000001100011 i#
b10 U"
b0 W"
b0 V"
b0 S"
b100010111 T"
b110000101110101011010010111000001100011 P"
b100000 J"
1c
1[#
b1 I"
b100 z#
0R#
b10 V#
1g"
0f"
b101 H"
0\"
0Z"
b0 ^"
0L#
0F#
0M#
09#
0"#
0+#
0w"
0u"
0d
0(#
0'#
0&#
0%#
04#
06#
0.#
08#
0,#
0*#
0}"
0{"
0!#
0|"
0z"
0J#
1I#
b0 R"
1]"
1X"
bx O"
1#
#190000
0#
#200000
b100010111 d#
b100010111 A
b100010111 3
b100010111 O
1*
1.
b1 8
0L
1&
b1 :
b1100101011110000110010101100011 Q"
b0 7"
b0 a#
b0 <"
b0 ;"
06"
05"
14"
b0 3"
b1 e#
1C
12
b100 ?
b100 5
b100 Z#
b10 B"
b0 D"
b0 C"
b100010111 A"
b0 @"
b110000101110101011010010111000001100011 ?"
0X"
b10 w#
b0 y#
b0 x#
b100010111 v#
b0 u#
b110000101110101011010010111000001100011 t#
0H#
1J#
b1000 J"
1]#
b0 ]
b0 |#
b0 \
b0 {#
0g"
b110 H"
1#
#210000
0#
#220000
1I
b1000000000000010000000100010011 P
b1000000000000010000000100010011 a
1Q
b1000000000000010000000100010011 d#
b1000000000000010000000100010011 A
b1000000000000010000000100010011 3
b1000000000000010000000100010011 O
b110011001100101011101000110001101101000 Q"
1N"
b0 M"
1B
19
b1000000000000010000000100010011 -
b1000000000000010000000100010011 >
b1000000 J"
1W#
1X#
b0 }#
b111 H"
b0 :"
1P#
1#
#230000
0#
#240000
bx d#
bx A
bx 3
bx O
0*
0.
b0 8
0I
b0 b
1H
0Q
0&
b0 i#
1F
bx M"
0N"
b0 e#
0C
02
0P#
b1000000000000010000000100010011 j#
b1000000000000010000000100010011 c#
b10 b"
b10000010000000000 _"
1B#
0n"
0c
0]#
0[#
0W#
0X#
b100 ~#
1f"
b1000 H"
bx }#
0B
09
bx O"
1#
#250000
0#
#260000
1L
b1000 b
0H
b11011000110010001011111011100100111001100110001 Q"
b1000 `
b1100001011001000110010001101001 i#
0F
bx 7"
b10 V"
b10000000000 S"
b1000000000000010000000100010011 T"
b1100001011001000110010001101001 P"
b100000 J"
1c
1[#
b10 I"
b1000 z#
1g"
0f"
b1001 H"
b10000000000 ^"
1F#
1k"
0J#
0I#
b100 R"
1X"
bx O"
1#
#270000
0#
#280000
b1000000000000010000000100010011 d#
b1000000000000010000000100010011 A
b1000000000000010000000100010011 3
b1000000000000010000000100010011 O
1*
1.
b1 8
0L
1&
b10 :
b1100101011110000110010101100011 Q"
b10000000000 7"
b10000000000 a#
16"
15"
04"
b10000000000 3"
b1 e#
1C
12
b1000 ?
b1000 5
b1000 Z#
b10 C"
b1000000000000010000000100010011 A"
b10000000000 @"
b1100001011001000110010001101001 ?"
0X"
b10 x#
b1000000000000010000000100010011 v#
b10000000000 u#
b1100001011001000110010001101001 t#
1J#
b1000 J"
1]#
1Z"
b0 Y"
b10000000000 ]
b10000000000 |#
b0 \
b0 {#
0g"
b1010 H"
bx :"
1#
#290000
0#
#300000
1I
b100000000000000001101111 P
b100000000000000001101111 a
1Q
b100000000000000001101111 d#
b100000000000000001101111 A
b100000000000000001101111 3
b100000000000000001101111 O
b110011001100101011101000110001101101000 Q"
1N"
b10000000000 M"
1B
19
b100000000000000001101111 -
b100000000000000001101111 >
b1000000 J"
1W#
1X#
b10000000100 }#
b1011 H"
b10000000000 :"
1P#
1#
#310000
0#
#320000
bx d#
bx A
bx 3
bx O
0*
0.
b0 8
0I
b0 b
1H
0Q
0&
b1100001011001000110010001101001 i#
bx L"
bx M"
0N"
b0 e#
0C
02
0P#
b100000000000000001101111 j#
b100000000000000001101111 c#
b1000 c"
b0 b"
b0 `"
b1000 _"
0B#
1x"
0c
0]#
0[#
0W#
0X#
b1000 ~#
1f"
b1100 H"
bx }#
0B
09
bx O"
1#
#330000
0#
#340000
1L
b10000 b
0H
b11010100110000101101100 P"
1N"
b1100 M"
b10000 `
bx 7"
b11010100110000101101100 i#
b0 U"
b1000 W"
b0 V"
b1000 S"
b100000000000000001101111 T"
1Q#
1c
1]#
b11 I"
b10000 z#
b0 V#
1g"
0f"
b1101 H"
0Z"
bx Y"
b1000 ^"
0J#
0F#
0k"
1I#
b1000 R"
1X"
bx O"
1#
#350000
0#
#360000
b100000000000000001101111 d#
b100000000000000001101111 A
b100000000000000001101111 3
b100000000000000001101111 O
1*
1.
b1 8
0L
1&
b100 :
b10000000000 7"
bx M"
0N"
b1 e#
1C
12
b10000 ?
b10000 5
b10000 Z#
b0 B"
b1000 D"
b0 C"
b100000000000000001101111 A"
b1000 @"
b11010100110000101101100 ?"
0X"
b0 w#
b1000 y#
b0 x#
b100000000000000001101111 v#
b1000 u#
b11010100110000101101100 t#
1J#
0Q#
b10000 ~#
0g"
b1110 H"
bx :"
bx O"
1#
#370000
0#
#380000
1I
b11111110000000010000000100010011 P
b11111110000000010000000100010011 a
1Q
b11111110000000010000000100010011 d#
b11111110000000010000000100010011 A
b11111110000000010000000100010011 3
b11111110000000010000000100010011 O
1B
19
b11111110000000010000000100010011 -
b11111110000000010000000100010011 >
b1111 H"
b10000000000 :"
1P#
bx O"
1#
#390000
0#
#400000
bx d#
bx A
bx 3
bx O
0*
0.
b0 8
0I
b0 b
1H
0Q
0&
b0 L"
b10000000000 K"
b0 i#
1F
b0 e#
0C
02
0P#
b11111110000000010000000100010011 j#
b11111110000000010000000100010011 c#
b0 c"
b10 b"
b10 `"
b11111111111100010000011111100000 _"
1B#
0x"
0c
0]#
1f"
b10000 H"
0B
09
bx O"
1#
#410000
0#
#420000
1L
b10100 b
0H
b11011000110010001011111011100100111001100110001 Q"
b10100 `
b1100001011001000110010001101001 i#
0F
bx 7"
b10 U"
b0 W"
b10 V"
b11111111111111111111111111100000 S"
b11111110000000010000000100010011 T"
b1100001011001000110010001101001 P"
b100000 J"
1c
1[#
b100 I"
b10100 z#
b10 V#
1g"
0f"
b10001 H"
b11111111111111111111111111100000 ^"
1F#
1k"
0J#
0I#
b10000 R"
1X"
bx O"
1#
#430000
0#
#440000
b11111110000000010000000100010011 d#
b11111110000000010000000100010011 A
b11111110000000010000000100010011 3
b11111110000000010000000100010011 O
1*
1.
b1 8
0L
1&
b101 :
b1100101011110000110010101100011 Q"
b1111100000 7"
b11111111111111111111111111100000 a#
b10000000000 <"
b10000000000 ;"
05"
b1111100000 3"
b1 e#
1C
12
b10100 ?
b10100 5
b10100 Z#
b10 B"
b0 D"
b10 C"
b11111110000000010000000100010011 A"
b11111111111111111111111111100000 @"
b1100001011001000110010001101001 ?"
0X"
b10 w#
b0 y#
b10 x#
b11111110000000010000000100010011 v#
b11111111111111111111111111100000 u#
b1100001011001000110010001101001 t#
1J#
b1000 J"
1]#
1Z"
b10000000000 Y"
b11111111111111111111111111100000 ]
b11111111111111111111111111100000 |#
b10000000000 \
b10000000000 {#
0g"
b10010 H"
bx :"
1#
#450000
0#
#460000
1I
b100000010010111000100011 P
b100000010010111000100011 a
1Q
b100000010010111000100011 d#
b100000010010111000100011 A
b100000010010111000100011 3
b100000010010111000100011 O
b110011001100101011101000110001101101000 Q"
1N"
b1111100000 M"
1B
19
b100000010010111000100011 -
b100000010010111000100011 >
b1000000 J"
1W#
1X#
b11111111111111111111111111110000 }#
b10011 H"
b1111100000 :"
1P#
1#
#470000
0#
#480000
bx d#
bx A
bx 3
bx O
0*
0.
b0 8
0I
b10000000000 b
1H
0Q
0&
bx L"
b1111100000 K"
bx M"
0N"
b0 e#
0C
02
0P#
b100000010010111000100011 j#
b100000010010111000100011 c#
b1000 c"
b11100 `"
b10010000000001000 _"
0B#
1K#
0c
0]#
0[#
0W#
0X#
b10100 ~#
1f"
b10100 H"
bx }#
0B
09
bx O"
1#
#490000
0#
#500000
1L
b11000 b
0H
b111001101110111 P"
b11011000110010001011111011100100111001100110001 Q"
b11000 `
bx 7"
b111001101110111 i#
b11100 U"
b1000 W"
b11100 S"
b100000010010111000100011 T"
b100000 J"
1c
1[#
b101 I"
b11000 z#
b11100 V#
1g"
0f"
b10101 H"
0Z"
bx Y"
b11100 ^"
0J#
0F#
0k"
18#
b10100 R"
1X"
bx O"
1#
#510000
0#
#520000
b100000010010111000100011 d#
b100000010010111000100011 A
b100000010010111000100011 3
b100000010010111000100011 O
1*
1.
b1 8
0L
1&
b110 :
b111001101110100011011010110010101101101 Q"
bx a#
bx <"
bx ;"
x6"
x5"
x4"
bx 3"
b1 e#
1C
12
b11000 ?
b11000 5
b11000 Z#
b11100 B"
b1000 D"
b100000010010111000100011 A"
b11100 @"
b111001101110111 ?"
0X"
b11100 w#
b1000 y#
b100000010010111000100011 v#
b11100 u#
b111001101110111 t#
1]#
b10 J"
1\"
1Z"
b1111100000 Y"
bx ]
bx |#
b1111100000 \
b1111100000 {#
0g"
b10110 H"
bx :"
1#
#530000
0#
#540000
1I
b10000000010000010000010011 P
b10000000010000010000010011 a
1Q
b10000000010000010000010011 d#
b10000000010000010000010011 A
b10000000010000010000010011 3
b10000000010000010000010011 O
1B
19
b10000000010000010000010011 -
b10000000010000010000010011 >
b10111 H"
1P#
1#
#550000
0#
#560000
bx d#
bx A
bx 3
bx O
0*
0.
b0 8
0I
1N
b1111111100 b
0Q
0&
b0 L"
b0 e#
0C
02
0P#
b10000000010000010000010011 j#
b10000000010000010000010011 c#
b0 c"
b1000 `"
b10000000000100000 _"
1B#
0K#
1^#
1c
0]#
0[#
b1111111100 \
b1111111100 {#
1f"
b11000 H"
0B
09
1$$
1#
#570000
0#
#580000
b1111 ;
1)
1.
b10 8
0N
b1100001011001000110010001101001 i#
b11111111 :
1g"
0f"
b11001 H"
b100000 ^"
1F#
1k"
08#
b10 e#
0@
04
1C
12
b1111 E
1'
b1111 /
b1111 =
b1111 h#
b1111111100 ?
b1111111100 5
b1111111100 Z#
0$$
1#
#590000
0#
#600000
1I
bx P
bx a
1Q
1P#
b1000 B"
b0 D"
b10000000010000010000010011 A"
b100000 @"
b1100001011001000110010001101001 ?"
1J#
0g"
b11010 H"
bx -
bx >
1B
19
1#
#610000
0#
#620000
0I
0Q
1H
b110011001100101011101000110001101101000 Q"
b0 e#
0C
02
0B
09
0c
0^#
1d"
1f"
b1000000 J"
b11011 H"
bx j#
bx c#
0P#
1#
#630000
0#
#640000
1L
b11100 b
0H
b11011000110010001011111011100100111001100110001 Q"
b11100 `
b1000 U"
b0 W"
b10000000010000010000010011 T"
b100000 S"
b1100001011001000110010001101001 P"
b11000 R"
1X"
b100000 J"
1c
1[#
b110 I"
b11100 z#
b1000 V#
b11000 ~#
1e"
0d"
1g"
0f"
b11100 H"
0\"
0Z"
bx Y"
1B
19
bx O"
1#
#650000
0#
#660000
1*
0)
1.
b1 8
0L
b0 ;
1&
b111 :
b1100101011110000110010101100011 Q"
b10000000000 7"
b100000 a#
b1111100000 <"
b1111100000 ;"
06"
05"
04"
b10000000000 3"
b1 e#
1@
14
1C
12
b0 E
0'
b0 /
b0 =
b0 h#
b11100 ?
b11100 5
b11100 Z#
0B
09
b1000 J"
1]#
b100000 ]
b100000 |#
1Z"
b1111100000 Y"
b1111100000 \
b1111100000 {#
0e"
0g"
b11101 H"
b0xxxxxxxxxxxxxxxx A"
0X"
b1000 w#
b0 y#
b10000000010000010000010011 v#
b100000 u#
b1100001011001000110010001101001 t#
1#
#670000
0#
#680000
1I
b11111110000001000010011000100011 P
b11111110000001000010011000100011 a
b11111110000001000010011000100011 d#
1Q
b110011001100101011101000110001101101000 Q"
1N"
b10000000000 M"
b11111110000001000010011000100011 A
b11111110000001000010011000100011 3
b11111110000001000010011000100011 O
1P#
b1000000 J"
1W#
1X#
b111000 }#
b11110 H"
b10000000000 :"
b11111110000001000010011000100011 -
b11111110000001000010011000100011 >
1B
19
1#
#690000
0#
#700000
bx d#
bx A
bx 3
bx O
0*
0.
b0 8
0I
0Q
b1111100000 b
1H
0&
bx M"
0N"
b10000000000 K"
b0 e#
0C
02
0B
09
0c
0]#
0[#
0W#
0X#
b11100 ~#
1f"
b11111 H"
bx }#
b1000 b"
b1100 `"
b11111111111101000010011111100000 _"
0B#
1K#
b11111110000001000010011000100011 j#
b11111110000001000010011000100011 c#
0P#
bx O"
1#
#710000
0#
